{"count":48,"next":"https://lldev.thespacedevs.com/2.2.0/launch/upcoming/?format=json&limit=10&offset=10&search=SpaceX","previous":null,"results":[{"id":"8b360e14-f90d-4a34-9a81-cb5a5ac364c1","url":"https://lldev.thespacedevs.com/2.2.0/launch/8b360e14-f90d-4a34-9a81-cb5a5ac364c1/?format=json","slug":"falcon-9-block-5-dragon-crs-2-spx-26","name":"Falcon 9 Block 5 | Dragon CRS-2 SpX-26","status":{"id":8,"name":"To Be Confirmed","abbrev":"TBC","description":"Awaiting official confirmation - current date is known with some certainty."},"last_updated":"2022-11-07T00:48:19Z","net":"2022-11-18T22:27:00Z","window_end":"2022-11-18T22:27:00Z","window_start":"2022-11-18T22:27:00Z","probability":null,"holdreason":"","failreason":"","hashtag":null,"launch_service_provider":{"id":121,"url":"https://lldev.thespacedevs.com/2.2.0/agencies/121/?format=json","name":"SpaceX","type":"Commercial"},"rocket":{"id":7458,"configuration":{"id":164,"url":"https://lldev.thespacedevs.com/2.2.0/config/launcher/164/?format=json","name":"Falcon 9","family":"Falcon","full_name":"Falcon 9 Block 5","variant":"Block 5"}},"mission":{"id":5856,"name":"Dragon CRS-2 SpX-26","description":"26th commercial resupply services mission to the International Space Station operated by SpaceX. The flight will be conducted under the second Commercial Resupply Services contract with NASA.\r\n\r\nCargo Dragon 2 brings supplies and payloads, including critical materials to directly support science and research investigations that occur onboard the orbiting laboratory.","launch_designator":null,"type":"Resupply","orbit":{"id":8,"name":"Low Earth Orbit","abbrev":"LEO"}},"pad":{"id":87,"url":"https://lldev.thespacedevs.com/2.2.0/pad/87/?format=json","agency_id":null,"name":"Launch Complex 39A","info_url":null,"wiki_url":"https://en.wikipedia.org/wiki/Kennedy_Space_Center_Launch_Complex_39#Launch_Pad_39A","map_url":"http://maps.google.com/maps?q=28.608+N,+80.604+W","latitude":"28.60822681","longitude":"-80.60428186","location":{"id":27,"url":"https://lldev.thespacedevs.com/2.2.0/location/27/?format=json","name":"Kennedy Space Center, FL, USA","country_code":"USA","map_image":"https://spacelaunchnow-prod-east.nyc3.digitaloceanspaces.com/media/launch_images/location_27_20200803142447.jpg","total_launch_count":209,"total_landing_count":0},"map_image":"https://spacelaunchnow-prod-east.nyc3.digitaloceanspaces.com/media/launch_images/pad_87_20200803143537.jpg","total_launch_count":152,"orbital_launch_attempt_count":150},"webcast_live":false,"image":"https://spacelaunchnow-prod-east.nyc3.digitaloceanspaces.com/media/launch_images/falcon2520925_image_20210922155149.jpeg","infographic":null,"program":[{"id":17,"url":"https://lldev.thespacedevs.com/2.2.0/program/17/?format=json","name":"International Space Station","description":"The International Space Station programme is tied together by a complex set of legal, political and financial agreements between the sixteen nations involved in the project, governing ownership of the various components, rights to crewing and utilization, and responsibilities for crew rotation and resupply of the International Space Station. It was conceived in 1984 by President Ronald Reagan, during the Space Station Freedom project as it was originally called.","agencies":[{"id":16,"url":"https://lldev.thespacedevs.com/2.2.0/agencies/16/?format=json","name":"Canadian Space Agency","type":"Government"},{"id":27,"url":"https://lldev.thespacedevs.com/2.2.0/agencies/27/?format=json","name":"European Space Agency","type":"Multinational"},{"id":37,"url":"https://lldev.thespacedevs.com/2.2.0/agencies/37/?format=json","name":"Japan Aerospace Exploration Agency","type":"Government"},{"id":44,"url":"https://lldev.thespacedevs.com/2.2.0/agencies/44/?format=json","name":"National Aeronautics and Space Administration","type":"Government"},{"id":63,"url":"https://lldev.thespacedevs.com/2.2.0/agencies/63/?format=json","name":"Russian Federal Space Agency (ROSCOSMOS)","type":"Government"}],"image_url":"https://spacelaunchnow-prod-east.nyc3.digitaloceanspaces.com/media/program_images/international2_program_20201129184745.png","start_date":"1998-11-20T06:40:00Z","end_date":null,"info_url":"https://www.nasa.gov/mission_pages/station/main/index.html","wiki_url":"https://en.wikipedia.org/wiki/International_Space_Station_programme","mission_patches":[]},{"id":11,"url":"https://lldev.thespacedevs.com/2.2.0/program/11/?format=json","name":"Commercial Resupply Services","description":"Commercial Resupply Services (CRS) are a series of flights awarded by NASA for the delivery of cargo and supplies to the International Space Station.The first CRS contracts were signed in 2008 and awarded $1.6 billion to SpaceX for twelve cargo Dragon and $1.9 billion to Orbital Sciences for eight Cygnus flights, covering deliveries to 2016. The Falcon 9 and Antares rockets were also developed under the CRS program to deliver cargo spacecraft to the ISS.","agencies":[{"id":44,"url":"https://lldev.thespacedevs.com/2.2.0/agencies/44/?format=json","name":"National Aeronautics and Space Administration","type":"Government"},{"id":257,"url":"https://lldev.thespacedevs.com/2.2.0/agencies/257/?format=json","name":"Northrop Grumman Space Systems","type":"Commercial"},{"id":1020,"url":"https://lldev.thespacedevs.com/2.2.0/agencies/1020/?format=json","name":"Sierra Nevada Corporation","type":"Commercial"},{"id":121,"url":"https://lldev.thespacedevs.com/2.2.0/agencies/121/?format=json","name":"SpaceX","type":"Commercial"}],"image_url":"https://spacelaunchnow-prod-east.nyc3.digitaloceanspaces.com/media/program_images/commercial2520_program_20201129212219.png","start_date":"2008-12-23T00:00:00Z","end_date":null,"info_url":null,"wiki_url":"https://en.wikipedia.org/wiki/Commercial_Resupply_Services#Commercial_Resupply_Services","mission_patches":[]}],"orbital_launch_attempt_count":6330,"location_launch_attempt_count":211,"pad_launch_attempt_count":153,"agency_launch_attempt_count":205,"orbital_launch_attempt_count_year":160,"location_launch_attempt_count_year":17,"pad_launch_attempt_count_year":16,"agency_launch_attempt_count_year":53},{"id":"2306e0bc-e1a3-4a4a-9285-e1a94073655e","url":"https://lldev.thespacedevs.com/2.2.0/launch/2306e0bc-e1a3-4a4a-9285-e1a94073655e/?format=json","slug":"falcon-9-block-5-hakuto-r-m1-lunar-flashlight","name":"Falcon 9 Block 5 | Hakuto-R M1 & Lunar Flashlight","status":{"id":2,"name":"To Be Determined","abbrev":"TBD","description":"Current date is a placeholder or rough estimation based on unreliable or interpreted sources."},"last_updated":"2022-11-07T01:28:42Z","net":"2022-11-22T00:00:00Z","window_end":"2022-11-22T00:00:00Z","window_start":"2022-11-22T00:00:00Z","probability":-1,"holdreason":"","failreason":"","hashtag":null,"launch_service_provider":{"id":121,"url":"https://lldev.thespacedevs.com/2.2.0/agencies/121/?format=json","name":"SpaceX","type":"Commercial"},"rocket":{"id":2496,"configuration":{"id":164,"url":"https://lldev.thespacedevs.com/2.2.0/config/launcher/164/?format=json","name":"Falcon 9","family":"Falcon","full_name":"Falcon 9 Block 5","variant":"Block 5"}},"mission":{"id":6161,"name":"Hakuto-R M1 & Lunar Flashlight","description":"First mission of the Hakuto-R commercial lunar lander developed by private Japanese company ispace.\r\n\r\nRideshare includes Lunar Flashlight, NASA's cubesat that will search for water ice at the Moon’s South Pole.","launch_designator":null,"type":"Lunar Exploration","orbit":{"id":11,"name":"Lunar Orbit","abbrev":"LO"}},"pad":{"id":80,"url":"https://lldev.thespacedevs.com/2.2.0/pad/80/?format=json","agency_id":121,"name":"Space Launch Complex 40","info_url":null,"wiki_url":"https://en.wikipedia.org/wiki/Cape_Canaveral_Air_Force_Station_Space_Launch_Complex_40","map_url":"http://maps.google.com/maps?q=28.56194122,-80.57735736","latitude":"28.56194122","longitude":"-80.57735736","location":{"id":12,"url":"https://lldev.thespacedevs.com/2.2.0/location/12/?format=json","name":"Cape Canaveral, FL, USA","country_code":"USA","map_image":"https://spacelaunchnow-prod-east.nyc3.digitaloceanspaces.com/media/launch_images/location_12_20200803142519.jpg","total_launch_count":863,"total_landing_count":26},"map_image":"https://spacelaunchnow-prod-east.nyc3.digitaloceanspaces.com/media/launch_images/pad_80_20200803143323.jpg","total_launch_count":158,"orbital_launch_attempt_count":157},"webcast_live":false,"image":"https://spacelaunchnow-prod-east.nyc3.digitaloceanspaces.com/media/launcher_images/falcon_9_block__image_20210506060831.jpg","infographic":null,"program":[],"orbital_launch_attempt_count":6331,"location_launch_attempt_count":865,"pad_launch_attempt_count":160,"agency_launch_attempt_count":206,"orbital_launch_attempt_count_year":161,"location_launch_attempt_count_year":35,"pad_launch_attempt_count_year":27,"agency_launch_attempt_count_year":54},{"id":"03d55128-630b-4630-b3b1-2d9bf34946a8","url":"https://lldev.thespacedevs.com/2.2.0/launch/03d55128-630b-4630-b3b1-2d9bf34946a8/?format=json","slug":"falcon-9-block-5-oneweb-15","name":"Falcon 9 Block 5 | OneWeb 15","status":{"id":2,"name":"To Be Determined","abbrev":"TBD","description":"Current date is a placeholder or rough estimation based on unreliable or interpreted sources."},"last_updated":"2022-11-07T00:15:28Z","net":"2022-11-30T00:00:00Z","window_end":"2022-11-30T00:00:00Z","window_start":"2022-11-30T00:00:00Z","probability":null,"holdreason":"","failreason":"","hashtag":null,"launch_service_provider":{"id":121,"url":"https://lldev.thespacedevs.com/2.2.0/agencies/121/?format=json","name":"SpaceX","type":"Commercial"},"rocket":{"id":2860,"configuration":{"id":164,"url":"https://lldev.thespacedevs.com/2.2.0/config/launcher/164/?format=json","name":"Falcon 9","family":"Falcon","full_name":"Falcon 9 Block 5","variant":"Block 5"}},"mission":{"id":1274,"name":"OneWeb 15","description":"A batch of 48 satellites for the OneWeb satellite constellation, which is intended to provide global Internet broadband service for individual consumers. The constellation is planned to have around 648 microsatellites (of which 60 are spares), around 150 kg each, operating in Ku-band from low Earth orbit.","launch_designator":null,"type":"Communications","orbit":{"id":13,"name":"Polar Orbit","abbrev":"PO"}},"pad":{"id":87,"url":"https://lldev.thespacedevs.com/2.2.0/pad/87/?format=json","agency_id":null,"name":"Launch Complex 39A","info_url":null,"wiki_url":"https://en.wikipedia.org/wiki/Kennedy_Space_Center_Launch_Complex_39#Launch_Pad_39A","map_url":"http://maps.google.com/maps?q=28.608+N,+80.604+W","latitude":"28.60822681","longitude":"-80.60428186","location":{"id":27,"url":"https://lldev.thespacedevs.com/2.2.0/location/27/?format=json","name":"Kennedy Space Center, FL, USA","country_code":"USA","map_image":"https://spacelaunchnow-prod-east.nyc3.digitaloceanspaces.com/media/launch_images/location_27_20200803142447.jpg","total_launch_count":209,"total_landing_count":0},"map_image":"https://spacelaunchnow-prod-east.nyc3.digitaloceanspaces.com/media/launch_images/pad_87_20200803143537.jpg","total_launch_count":152,"orbital_launch_attempt_count":150},"webcast_live":false,"image":"https://spacelaunchnow-prod-east.nyc3.digitaloceanspaces.com/media/launch_images/falcon2520925_image_20220322195146.jpeg","infographic":null,"program":[],"orbital_launch_attempt_count":6341,"location_launch_attempt_count":212,"pad_launch_attempt_count":154,"agency_launch_attempt_count":210,"orbital_launch_attempt_count_year":171,"location_launch_attempt_count_year":18,"pad_launch_attempt_count_year":17,"agency_launch_attempt_count_year":58},{"id":"050eecbc-ebfc-4656-9fee-1dbc5e5c59a4","url":"https://lldev.thespacedevs.com/2.2.0/launch/050eecbc-ebfc-4656-9fee-1dbc5e5c59a4/?format=json","slug":"falcon-9-block-5-starlink-group-2-4","name":"Falcon 9 Block 5 | Starlink Group 2-4","status":{"id":2,"name":"To Be Determined","abbrev":"TBD","description":"Current date is a placeholder or rough estimation based on unreliable or interpreted sources."},"last_updated":"2022-11-07T00:15:45Z","net":"2022-11-30T00:00:00Z","window_end":"2022-11-30T00:00:00Z","window_start":"2022-11-30T00:00:00Z","probability":null,"holdreason":"","failreason":"","hashtag":null,"launch_service_provider":{"id":121,"url":"https://lldev.thespacedevs.com/2.2.0/agencies/121/?format=json","name":"SpaceX","type":"Commercial"},"rocket":{"id":7651,"configuration":{"id":164,"url":"https://lldev.thespacedevs.com/2.2.0/config/launcher/164/?format=json","name":"Falcon 9","family":"Falcon","full_name":"Falcon 9 Block 5","variant":"Block 5"}},"mission":{"id":6169,"name":"Starlink Group 2-4","description":"A batch of satellites for Starlink mega-constellation - SpaceX's project for space-based Internet communication system.","launch_designator":null,"type":"Communications","orbit":{"id":8,"name":"Low Earth Orbit","abbrev":"LEO"}},"pad":{"id":16,"url":"https://lldev.thespacedevs.com/2.2.0/pad/16/?format=json","agency_id":null,"name":"Space Launch Complex 4E","info_url":null,"wiki_url":"","map_url":"http://maps.google.com/maps?q=34.632+N,+120.611+W","latitude":"34.632","longitude":"-120.611","location":{"id":11,"url":"https://lldev.thespacedevs.com/2.2.0/location/11/?format=json","name":"Vandenberg SFB, CA, USA","country_code":"USA","map_image":"https://spacelaunchnow-prod-east.nyc3.digitaloceanspaces.com/media/launch_images/location_11_20200803142416.jpg","total_launch_count":706,"total_landing_count":6},"map_image":"https://spacelaunchnow-prod-east.nyc3.digitaloceanspaces.com/media/launch_images/pad_16_20200803143532.jpg","total_launch_count":98,"orbital_launch_attempt_count":98},"webcast_live":false,"image":"https://spacelaunchnow-prod-east.nyc3.digitaloceanspaces.com/media/launch_images/falcon2520925_image_20221009234147.png","infographic":null,"program":[],"orbital_launch_attempt_count":6341,"location_launch_attempt_count":709,"pad_launch_attempt_count":99,"agency_launch_attempt_count":210,"orbital_launch_attempt_count_year":171,"location_launch_attempt_count_year":16,"pad_launch_attempt_count_year":12,"agency_launch_attempt_count_year":58},{"id":"bf91b6d9-f517-4198-843c-dc82dfa6f9b0","url":"https://lldev.thespacedevs.com/2.2.0/launch/bf91b6d9-f517-4198-843c-dc82dfa6f9b0/?format=json","slug":"falcon-9-block-5-starlink-group-4-37","name":"Falcon 9 Block 5 | Starlink Group 4-37","status":{"id":2,"name":"To Be Determined","abbrev":"TBD","description":"Current date is a placeholder or rough estimation based on unreliable or interpreted sources."},"last_updated":"2022-11-07T01:31:32Z","net":"2022-11-30T00:00:00Z","window_end":"2022-11-30T00:00:00Z","window_start":"2022-11-30T00:00:00Z","probability":null,"holdreason":"","failreason":"","hashtag":null,"launch_service_provider":{"id":121,"url":"https://lldev.thespacedevs.com/2.2.0/agencies/121/?format=json","name":"SpaceX","type":"Commercial"},"rocket":{"id":7639,"configuration":{"id":164,"url":"https://lldev.thespacedevs.com/2.2.0/config/launcher/164/?format=json","name":"Falcon 9","family":"Falcon","full_name":"Falcon 9 Block 5","variant":"Block 5"}},"mission":{"id":6142,"name":"Starlink Group 4-37","description":"A batch of 52 satellites for Starlink mega-constellation - SpaceX's project for space-based Internet communication system.","launch_designator":null,"type":"Communications","orbit":{"id":8,"name":"Low Earth Orbit","abbrev":"LEO"}},"pad":{"id":80,"url":"https://lldev.thespacedevs.com/2.2.0/pad/80/?format=json","agency_id":121,"name":"Space Launch Complex 40","info_url":null,"wiki_url":"https://en.wikipedia.org/wiki/Cape_Canaveral_Air_Force_Station_Space_Launch_Complex_40","map_url":"http://maps.google.com/maps?q=28.56194122,-80.57735736","latitude":"28.56194122","longitude":"-80.57735736","location":{"id":12,"url":"https://lldev.thespacedevs.com/2.2.0/location/12/?format=json","name":"Cape Canaveral, FL, USA","country_code":"USA","map_image":"https://spacelaunchnow-prod-east.nyc3.digitaloceanspaces.com/media/launch_images/location_12_20200803142519.jpg","total_launch_count":863,"total_landing_count":26},"map_image":"https://spacelaunchnow-prod-east.nyc3.digitaloceanspaces.com/media/launch_images/pad_80_20200803143323.jpg","total_launch_count":158,"orbital_launch_attempt_count":157},"webcast_live":false,"image":"https://spacelaunchnow-prod-east.nyc3.digitaloceanspaces.com/media/launch_images/falcon2520925_image_20221001060437.png","infographic":null,"program":[],"orbital_launch_attempt_count":6341,"location_launch_attempt_count":868,"pad_launch_attempt_count":162,"agency_launch_attempt_count":210,"orbital_launch_attempt_count_year":171,"location_launch_attempt_count_year":38,"pad_launch_attempt_count_year":29,"agency_launch_attempt_count_year":58},{"id":"d39b1374-21d3-467a-967d-f22a2cc199e3","url":"https://lldev.thespacedevs.com/2.2.0/launch/d39b1374-21d3-467a-967d-f22a2cc199e3/?format=json","slug":"falcon-9-block-5-eutelsat-10b","name":"Falcon 9 Block 5 | Eutelsat 10B","status":{"id":2,"name":"To Be Determined","abbrev":"TBD","description":"Current date is a placeholder or rough estimation based on unreliable or interpreted sources."},"last_updated":"2022-11-07T01:31:48Z","net":"2022-11-30T00:00:00Z","window_end":"2022-11-30T00:00:00Z","window_start":"2022-11-30T00:00:00Z","probability":null,"holdreason":"","failreason":"","hashtag":null,"launch_service_provider":{"id":121,"url":"https://lldev.thespacedevs.com/2.2.0/agencies/121/?format=json","name":"SpaceX","type":"Commercial"},"rocket":{"id":7516,"configuration":{"id":164,"url":"https://lldev.thespacedevs.com/2.2.0/config/launcher/164/?format=json","name":"Falcon 9","family":"Falcon","full_name":"Falcon 9 Block 5","variant":"Block 5"}},"mission":{"id":5926,"name":"Eutelsat 10B","description":"Eutelsat 10B is an all-electric geostationary communications satellite equipped with two multi-beam HTS Ku-band payloads able to provide a throughput of approximately 35 Gbps.","launch_designator":null,"type":"Communications","orbit":{"id":2,"name":"Geostationary Transfer Orbit","abbrev":"GTO"}},"pad":{"id":80,"url":"https://lldev.thespacedevs.com/2.2.0/pad/80/?format=json","agency_id":121,"name":"Space Launch Complex 40","info_url":null,"wiki_url":"https://en.wikipedia.org/wiki/Cape_Canaveral_Air_Force_Station_Space_Launch_Complex_40","map_url":"http://maps.google.com/maps?q=28.56194122,-80.57735736","latitude":"28.56194122","longitude":"-80.57735736","location":{"id":12,"url":"https://lldev.thespacedevs.com/2.2.0/location/12/?format=json","name":"Cape Canaveral, FL, USA","country_code":"USA","map_image":"https://spacelaunchnow-prod-east.nyc3.digitaloceanspaces.com/media/launch_images/location_12_20200803142519.jpg","total_launch_count":863,"total_landing_count":26},"map_image":"https://spacelaunchnow-prod-east.nyc3.digitaloceanspaces.com/media/launch_images/pad_80_20200803143323.jpg","total_launch_count":158,"orbital_launch_attempt_count":157},"webcast_live":false,"image":"https://spacelaunchnow-prod-east.nyc3.digitaloceanspaces.com/media/launcher_images/falcon_9_block__image_20210506060831.jpg","infographic":null,"program":[],"orbital_launch_attempt_count":6341,"location_launch_attempt_count":868,"pad_launch_attempt_count":162,"agency_launch_attempt_count":210,"orbital_launch_attempt_count_year":171,"location_launch_attempt_count_year":38,"pad_launch_attempt_count_year":29,"agency_launch_attempt_count_year":58},{"id":"8226d219-b612-4797-a9d2-c5ca7ab0b076","url":"https://lldev.thespacedevs.com/2.2.0/launch/8226d219-b612-4797-a9d2-c5ca7ab0b076/?format=json","slug":"falcon-9-block-5-swot-surface-water-and-ocean-topo","name":"Falcon 9 Block 5 | SWOT - Surface Water and Ocean Topography","status":{"id":8,"name":"To Be Confirmed","abbrev":"TBC","description":"Awaiting official confirmation - current date is known with some certainty."},"last_updated":"2022-11-07T01:30:29Z","net":"2022-12-05T08:45:02Z","window_end":"2022-12-05T08:45:02Z","window_start":"2022-12-05T08:45:02Z","probability":-1,"holdreason":"","failreason":"","hashtag":null,"launch_service_provider":{"id":121,"url":"https://lldev.thespacedevs.com/2.2.0/agencies/121/?format=json","name":"SpaceX","type":"Commercial"},"rocket":{"id":177,"configuration":{"id":164,"url":"https://lldev.thespacedevs.com/2.2.0/config/launcher/164/?format=json","name":"Falcon 9","family":"Falcon","full_name":"Falcon 9 Block 5","variant":"Block 5"}},"mission":{"id":6160,"name":"SWOT - Surface Water and Ocean Topography","description":"Satellite altimeter jointly developed by NASA and CNES, the French space agency, in partnership with the Canadian Space Agency (CSA) and UK Space Agency (UKSA) designed to make the first global survey of the Earth's surface water, to observe the fine details of the ocean surface topography, and to measure how terrestrial surface water bodies change over time.","launch_designator":null,"type":"Earth Science","orbit":{"id":8,"name":"Low Earth Orbit","abbrev":"LEO"}},"pad":{"id":16,"url":"https://lldev.thespacedevs.com/2.2.0/pad/16/?format=json","agency_id":null,"name":"Space Launch Complex 4E","info_url":null,"wiki_url":"","map_url":"http://maps.google.com/maps?q=34.632+N,+120.611+W","latitude":"34.632","longitude":"-120.611","location":{"id":11,"url":"https://lldev.thespacedevs.com/2.2.0/location/11/?format=json","name":"Vandenberg SFB, CA, USA","country_code":"USA","map_image":"https://spacelaunchnow-prod-east.nyc3.digitaloceanspaces.com/media/launch_images/location_11_20200803142416.jpg","total_launch_count":706,"total_landing_count":6},"map_image":"https://spacelaunchnow-prod-east.nyc3.digitaloceanspaces.com/media/launch_images/pad_16_20200803143532.jpg","total_launch_count":98,"orbital_launch_attempt_count":98},"webcast_live":false,"image":"https://spacelaunchnow-prod-east.nyc3.digitaloceanspaces.com/media/launcher_images/falcon_9_block__image_20210506060831.jpg","infographic":null,"program":[],"orbital_launch_attempt_count":6343,"location_launch_attempt_count":710,"pad_launch_attempt_count":100,"agency_launch_attempt_count":211,"orbital_launch_attempt_count_year":173,"location_launch_attempt_count_year":17,"pad_launch_attempt_count_year":13,"agency_launch_attempt_count_year":59},{"id":"0705d82e-11b4-4e78-9075-457987f9f32f","url":"https://lldev.thespacedevs.com/2.2.0/launch/0705d82e-11b4-4e78-9075-457987f9f32f/?format=json","slug":"falcon-9-block-5-sda-tranche-0","name":"Falcon 9 Block 5 | SDA Tranche 0","status":{"id":2,"name":"To Be Determined","abbrev":"TBD","description":"Current date is a placeholder or rough estimation based on unreliable or interpreted sources."},"last_updated":"2022-11-07T00:16:19Z","net":"2022-12-31T00:00:00Z","window_end":"2022-12-31T00:00:00Z","window_start":"2022-12-31T00:00:00Z","probability":null,"holdreason":"","failreason":"","hashtag":null,"launch_service_provider":{"id":121,"url":"https://lldev.thespacedevs.com/2.2.0/agencies/121/?format=json","name":"SpaceX","type":"Commercial"},"rocket":{"id":7558,"configuration":{"id":164,"url":"https://lldev.thespacedevs.com/2.2.0/config/launcher/164/?format=json","name":"Falcon 9","family":"Falcon","full_name":"Falcon 9 Block 5","variant":"Block 5"}},"mission":{"id":6166,"name":"SDA Tranche 0","description":"First mission launched by the Space Development Agency for the Tranche 0 Transport Layer.","launch_designator":null,"type":"Government/Top Secret","orbit":{"id":13,"name":"Polar Orbit","abbrev":"PO"}},"pad":{"id":16,"url":"https://lldev.thespacedevs.com/2.2.0/pad/16/?format=json","agency_id":null,"name":"Space Launch Complex 4E","info_url":null,"wiki_url":"","map_url":"http://maps.google.com/maps?q=34.632+N,+120.611+W","latitude":"34.632","longitude":"-120.611","location":{"id":11,"url":"https://lldev.thespacedevs.com/2.2.0/location/11/?format=json","name":"Vandenberg SFB, CA, USA","country_code":"USA","map_image":"https://spacelaunchnow-prod-east.nyc3.digitaloceanspaces.com/media/launch_images/location_11_20200803142416.jpg","total_launch_count":706,"total_landing_count":6},"map_image":"https://spacelaunchnow-prod-east.nyc3.digitaloceanspaces.com/media/launch_images/pad_16_20200803143532.jpg","total_launch_count":98,"orbital_launch_attempt_count":98},"webcast_live":false,"image":"https://spacelaunchnow-prod-east.nyc3.digitaloceanspaces.com/media/launcher_images/falcon_9_block__image_20210506060831.jpg","infographic":null,"program":[],"orbital_launch_attempt_count":6366,"location_launch_attempt_count":712,"pad_launch_attempt_count":102,"agency_launch_attempt_count":220,"orbital_launch_attempt_count_year":196,"location_launch_attempt_count_year":19,"pad_launch_attempt_count_year":15,"agency_launch_attempt_count_year":68},{"id":"16e0f780-7d6d-46bc-a0d4-cb23368e3501","url":"https://lldev.thespacedevs.com/2.2.0/launch/16e0f780-7d6d-46bc-a0d4-cb23368e3501/?format=json","slug":"falcon-9-block-5-starlink-group-2-2","name":"Falcon 9 Block 5 | Starlink Group 2-2","status":{"id":2,"name":"To Be Determined","abbrev":"TBD","description":"Current date is a placeholder or rough estimation based on unreliable or interpreted sources."},"last_updated":"2022-11-07T01:28:31Z","net":"2022-12-31T00:00:00Z","window_end":"2022-12-31T00:00:00Z","window_start":"2022-12-31T00:00:00Z","probability":null,"holdreason":"","failreason":"","hashtag":null,"launch_service_provider":{"id":121,"url":"https://lldev.thespacedevs.com/2.2.0/agencies/121/?format=json","name":"SpaceX","type":"Commercial"},"rocket":{"id":7695,"configuration":{"id":164,"url":"https://lldev.thespacedevs.com/2.2.0/config/launcher/164/?format=json","name":"Falcon 9","family":"Falcon","full_name":"Falcon 9 Block 5","variant":"Block 5"}},"mission":{"id":6211,"name":"Starlink Group 2-2","description":"A batch of satellites for Starlink mega-constellation - SpaceX's project for space-based Internet communication system.","launch_designator":null,"type":"Communications","orbit":{"id":8,"name":"Low Earth Orbit","abbrev":"LEO"}},"pad":{"id":80,"url":"https://lldev.thespacedevs.com/2.2.0/pad/80/?format=json","agency_id":121,"name":"Space Launch Complex 40","info_url":null,"wiki_url":"https://en.wikipedia.org/wiki/Cape_Canaveral_Air_Force_Station_Space_Launch_Complex_40","map_url":"http://maps.google.com/maps?q=28.56194122,-80.57735736","latitude":"28.56194122","longitude":"-80.57735736","location":{"id":12,"url":"https://lldev.thespacedevs.com/2.2.0/location/12/?format=json","name":"Cape Canaveral, FL, USA","country_code":"USA","map_image":"https://spacelaunchnow-prod-east.nyc3.digitaloceanspaces.com/media/launch_images/location_12_20200803142519.jpg","total_launch_count":863,"total_landing_count":26},"map_image":"https://spacelaunchnow-prod-east.nyc3.digitaloceanspaces.com/media/launch_images/pad_80_20200803143323.jpg","total_launch_count":158,"orbital_launch_attempt_count":157},"webcast_live":false,"image":"https://spacelaunchnow-prod-east.nyc3.digitaloceanspaces.com/media/launch_images/falcon2520925_image_20221102115051.png","infographic":null,"program":[],"orbital_launch_attempt_count":6366,"location_launch_attempt_count":874,"pad_launch_attempt_count":166,"agency_launch_attempt_count":220,"orbital_launch_attempt_count_year":196,"location_launch_attempt_count_year":44,"pad_launch_attempt_count_year":33,"agency_launch_attempt_count_year":68},{"id":"629f10e4-93cc-4b1b-9b2f-53f7d3944fc1","url":"https://lldev.thespacedevs.com/2.2.0/launch/629f10e4-93cc-4b1b-9b2f-53f7d3944fc1/?format=json","slug":"falcon-9-block-5-worldview-legion-1-2","name":"Falcon 9 Block 5 | WorldView Legion 1 & 2","status":{"id":2,"name":"To Be Determined","abbrev":"TBD","description":"Current date is a placeholder or rough estimation based on unreliable or interpreted sources."},"last_updated":"2022-11-07T00:37:39Z","net":"2022-12-31T00:00:00Z","window_end":"2022-12-31T00:00:00Z","window_start":"2022-12-31T00:00:00Z","probability":-1,"holdreason":"","failreason":"","hashtag":null,"launch_service_provider":{"id":121,"url":"https://lldev.thespacedevs.com/2.2.0/agencies/121/?format=json","name":"SpaceX","type":"Commercial"},"rocket":{"id":172,"configuration":{"id":164,"url":"https://lldev.thespacedevs.com/2.2.0/config/launcher/164/?format=json","name":"Falcon 9","family":"Falcon","full_name":"Falcon 9 Block 5","variant":"Block 5"}},"mission":{"id":5930,"name":"WorldView Legion 1 & 2","description":"WorldView Legion is a constellation of Earth observation satellites built and operated by Maxar. Constellation is planned to consist of 6 satellites in both polar and mid-inclination orbits, providing 30 cm-class resolution.","launch_designator":null,"type":"Earth Science","orbit":{"id":17,"name":"Sun-Synchronous Orbit","abbrev":"SSO"}},"pad":{"id":80,"url":"https://lldev.thespacedevs.com/2.2.0/pad/80/?format=json","agency_id":121,"name":"Space Launch Complex 40","info_url":null,"wiki_url":"https://en.wikipedia.org/wiki/Cape_Canaveral_Air_Force_Station_Space_Launch_Complex_40","map_url":"http://maps.google.com/maps?q=28.56194122,-80.57735736","latitude":"28.56194122","longitude":"-80.57735736","location":{"id":12,"url":"https://lldev.thespacedevs.com/2.2.0/location/12/?format=json","name":"Cape Canaveral, FL, USA","country_code":"USA","map_image":"https://spacelaunchnow-prod-east.nyc3.digitaloceanspaces.com/media/launch_images/location_12_20200803142519.jpg","total_launch_count":863,"total_landing_count":26},"map_image":"https://spacelaunchnow-prod-east.nyc3.digitaloceanspaces.com/media/launch_images/pad_80_20200803143323.jpg","total_launch_count":158,"orbital_launch_attempt_count":157},"webcast_live":false,"image":"https://spacelaunchnow-prod-east.nyc3.digitaloceanspaces.com/media/launcher_images/falcon_9_block__image_20210506060831.jpg","infographic":null,"program":[],"orbital_launch_attempt_count":6366,"location_launch_attempt_count":874,"pad_launch_attempt_count":166,"agency_launch_attempt_count":220,"orbital_launch_attempt_count_year":196,"location_launch_attempt_count_year":44,"pad_launch_attempt_count_year":33,"agency_launch_attempt_count_year":68}]}